{
  "project_info": {
    "project_number": "743077786680",
    "project_id": "myzzone-ae71a",
    "storage_bucket": "myzzone-ae71a.appspot.com"
  },
  "client": [
    {
      "client_info": {
        "mobilesdk_app_id": "1:743077786680:android:40b19d9574e04e314a62cd",
        "android_client_info": {
          "package_name": "grand.myzone"
        }
      },
      "oauth_client": [
        {
          "client_id": "743077786680-5t4v9a9fnjk1an6c0q6tjhuuihun3q32.apps.googleusercontent.com",
          "client_type": 3
        }
      ],
      "api_key": [
        {
          "current_key": "AIzaSyCUuuxMMTHnmAuFZBa39BW8QQSYHOrulHw"
        }
      ],
      "services": {
        "appinvite_service": {
          "other_platform_oauth_client": [
            {
              "client_id": "743077786680-5t4v9a9fnjk1an6c0q6tjhuuihun3q32.apps.googleusercontent.com",
              "client_type": 3
            },
            {
              "client_id": "743077786680-8056a2m50egga13shlvbb3c54i3teb8v.apps.googleusercontent.com",
              "client_type": 2,
              "ios_info": {
                "bundle_id": "com.2grand.Myzzone"
              }
            }
          ]
        }
      }
    }
  ],
  "configuration_version": "1"
}